var l: real = 2.4;

//var l: int = 5;


def funcSquare(x: real) : real {
    return x*x;
}


def funcGreaterThan(z:real , y:real) : bool{
    var l:real = 25;
    var ans : bool = true;
    if(y>z){
        print l;
        set ans = false;
    }
    return ans;
}


var m : real = funcSquare(5);

while(not l>m){print "hello";}

print funcSquare(3);

//print funcfreaterThan(l, 2.3);
