\relax 
\@writefile{lof}{\contentsline {figure}{\numberline {1}{\ignorespaces EBNF: Part 1\relax }}{2}}
\providecommand*\caption@xref[2]{\@setref\relax\@undefined{#1}}
\newlabel{fig:EBNF: Part 1}{{1}{2}}
\@writefile{lof}{\contentsline {figure}{\numberline {2}{\ignorespaces EBNF: Part 2\relax }}{3}}
\newlabel{fig:EBNF: Part 2}{{2}{3}}
\@writefile{lot}{\contentsline {table}{\numberline {1}{\ignorespaces Micro Syntax Labels\relax }}{5}}
\newlabel{table:micro syntax labels}{{1}{5}}
\@writefile{lot}{\contentsline {table}{\numberline {2}{\ignorespaces Accepting States And Their Corresponding Token Labels\relax }}{5}}
\newlabel{table:token labels}{{2}{5}}
\@writefile{lot}{\contentsline {table}{\numberline {3}{\ignorespaces Lexemes Of Keywords Mapped To Token\relax }}{6}}
\newlabel{table:token labels}{{3}{6}}
\newlabel{RF1}{8}
\@writefile{lof}{\contentsline {figure}{\numberline {3}{\ignorespaces Transition Table\relax }}{8}}
\newlabel{fig:Transition Table}{{3}{8}}
\newlabel{RF2}{14}
\@writefile{lof}{\contentsline {figure}{\numberline {7}{\ignorespaces Statement Hierarchy\relax }}{14}}
\newlabel{fig:Statement Hierarchy}{{7}{14}}
\newlabel{RF3}{15}
\@writefile{lof}{\contentsline {figure}{\numberline {8}{\ignorespaces Expression Hierarchy\relax }}{15}}
\newlabel{fig:Expression Hierarchy}{{8}{15}}
\@writefile{lof}{\contentsline {figure}{\numberline {11}{\ignorespaces Visitor Pattern Hierarchy\relax }}{20}}
\newlabel{fig: Visitor Pattern Hierarchy}{{11}{20}}
\@writefile{lot}{\contentsline {table}{\numberline {4}{\ignorespaces Allowance Of Binary Operations\relax }}{25}}
\newlabel{table:Allowance Binary OP}{{4}{25}}
\@writefile{lof}{\contentsline {figure}{\numberline {16}{\ignorespaces First Test\relax }}{35}}
\newlabel{fig: First Test}{{16}{35}}
\@writefile{lof}{\contentsline {figure}{\numberline {17}{\ignorespaces Second Test\relax }}{36}}
\newlabel{fig: Second Test}{{17}{36}}
\@writefile{lof}{\contentsline {figure}{\numberline {18}{\ignorespaces Input Third Test\relax }}{37}}
\newlabel{fig: Input Third Test}{{18}{37}}
\@writefile{lof}{\contentsline {figure}{\numberline {19}{\ignorespaces Output Third Test\relax }}{38}}
\newlabel{fig: Output Third Test}{{19}{38}}
\@writefile{lof}{\contentsline {figure}{\numberline {20}{\ignorespaces Output Fourth Test\relax }}{39}}
\newlabel{fig: Output Fourth Test}{{20}{39}}
